SessionID	check	clarity	indip_thinking	plan_corr	working	quality	own_grade
1542	x	5	2	5	4	3	5
1543	x	2	3	3	3	2	5
1544	x	1	4	3	5	4	5
1550	x	4	5	1	1	1	2
1552	x	4	4	4	3	3	4
1557	x	2	5	3	5	5	5
1564	x	1	3	3	1	1	5
1565	x	1	1	5	5	5	5
1568	x	2	1	5	5	5	5
1576	x	2	1	3	3	3	5
1584	x	2	4	1	3	2	3
1585	x	5	3	5	4	5	5
1593	x	3	5	2	1	2	3
1599	x	5	3	2	2	2	4
1600	x	5	3	4	4	4	3
1602	x	2	2	3	4	2	5
1606	x	1	3	2	1	1	3
1609	x	5	4	3	3	3	3